; Engine configuration file.
; It's best edited using the editor UI and not directly,
; since the parameters that go here are not all obvious.
;
; Format:
;   [section] ; section goes between []
;   param=value ; assign values to parameters

config_version=4

[application]

config/name="Cube_solver"
run/main_scene="res://Cube_Space.tscn"
config/icon="res://icon.png"

[display]

window/size/width=1280
window/size/height=720
window/stretch/mode="2d"

[physics]

common/enable_pause_aware_picking=true

[rendering]

environment/default_environment="res://default_env.tres"
